----------------------------------------
bin97.new35.eng
----------------------------------------
1
--------------------
There is taking place in the techniques of record and communication a series of changes more revolutionary in their possible impact upon culture than the invention of printing.
--------------------
(1948: 179)
----------------------------------------
2
--------------------
With some of these techniques, notably those that depend upon electricity and include the telegraph, telephone, radio, teletype, and television, the world is already familiar, though what their total result will be we do not yet know.
--------------------
(1948: 179)
----------------------------------------
3
--------------------
Others coming up in the graphic arts, based on the typewriter and photography and including “near-print,” micro-photography, and photo-offset, are less widely understood.
--------------------
(1948: 179)
----------------------------------------
4
--------------------
The activities reorganized in the fifteenth century by the invention of printing, and now offered another reorganization by innovations in the graphic arts, affected bookmakers, authors, and readers.
--------------------
(1948: 180)
----------------------------------------
5
--------------------
The technical processes of photo-offset and photogelatin printing disclose new prospects in bookmaking.--------------------
(1948: 180)
----------------------------------------
6
--------------------
Near-print frees the author from some present restraints upon him.
--------------------
(1948: 180)
----------------------------------------
7
--------------------
And micro-copying opens a new world to readers.
--------------------
(1948: 180)
----------------------------------------
8
--------------------
... the photo-offset process ... transfers a text with black and white illustrations photographically to a sheet of zinc or aluminum in such a fashion that the metal sheet becomes a printing surface, laying down an image on a rubber roller, which transfers it to paper.
--------------------
(1948: 180)
----------------------------------------
9
--------------------
The process is ... used extensively in reprinting old books, but it can equally well multiply copies of a manuscript, old or new.
--------------------
(1948: 181)
----------------------------------------
10
--------------------
Today the Western scholar’s problem is not to get hold of the books that everyone else has read or is reading but rather to procure materials that hardly anyone else would think of looking at.
--------------------
(1948: 182)
----------------------------------------
11
--------------------
... the qualities of the printing process that began in the fifteenth century to make things accessible have now begun in our different circumstances to make them inaccessible. When many if not all scholars wanted the same things, the printing press served them. In the twentieth century, when the number of those who want the same things has fallen in some cases below the practical publishing point (American Indian language specialists are an illustration), the printing press leaves them in the lurch. Printing technique, scholarly activities, and library funds have increased the amount of available material at a tremendous rate, but widening interests and the three centuries’ accumulation of out-of-print titles have increased the number of desired but inaccessible books at an even greater rate.
--------------------
(1948: 182)
----------------------------------------
12
--------------------
Scholarship is now ready to utilize a method of book production that would return to the cost system of the old copyist, by which a unique copy could be made to order and a very few reproductions supplied without special expense.
--------------------
(1948: 182)
----------------------------------------
13
--------------------
Precisely this prospect is now presented by micro-copying. The process promises to reproduce reading matter not only at a cost level well below that prevailing in the book trade but also under a cost system that will operate like that of the medieval copyists.
--------------------
(1948: 182-183)
----------------------------------------
14
--------------------
... micro-copying ... This is a process by which a page of print or typescript is photographically reduced twenty-three diameters in size, being copies on a strip of film 1/2 inch wide and one or two hundred feet long. The micro-copies are rendered legible by projection. A machine throws an enlarged image downward on a table, where the reader finds it just as legible as the original page.
--------------------
(1948: 183)
----------------------------------------
15
--------------------
Micro-copying ... offers the reader a book production system more elastic than anything he has had since the fifteenth century; it will respond to the demand for a unique copy, regardless of other market prospects. So the scholar in a small town can have resources of great metropolitan libraries at his disposal.
--------------------
(1948: 184)
----------------------------------------
16
--------------------
Any scholar who wants to procure the text of a few hundred pages of some rare book or inaccessible periodical from Yale University Library, New York Public Library, or the Library of Congress can send for it by mail and get a micro-copy for $1.50 per hundred pages.
--------------------
(1948: 184)
----------------------------------------
17
--------------------
There is some prospect of even more efficient devices for copying. Some scholars will do their own copying with portable equipment. Micro-copying is a technique that will serve in the twentieth century to do what printing and publishing cannot always accomplish: give the reader exactly what he wants, and bring it to him wherever he wants to use it.
--------------------
(1948: 184)
----------------------------------------
18
--------------------
The effect of the printing press upon writers was not so quickly felt as its effects upon readers. The first printed books were mainly not “new books” by new authors; they were editions of the Bible and the classics, educational and religious texts. Writers were able to increase their influence greatly by using the press, as Luther and Erasmus discovered, but a good copyright law and administration were necessary before they could make a good living from writing. In the eighteenth century, however, the writers were able to shift their sources of income from patrons to publishers. Writing became a profession, and then writers found themselves subjected to the mechanics and accountancy of the printing press, which restrained their freedom perhaps even more than their previous masters, the patrons, had done. For authors discovered that itwas useless to take pains to write anything that would not interest and attract the number of readers or buyers that the printer required in order to absorb and distribute his costs of composition and make-up.
--------------------
(1948: 184-185)
----------------------------------------
19
--------------------
... Western civilization now expects even poetry to fit the Procrustean bed of the publishing industry.
--------------------
(1948: 185)
----------------------------------------
20
--------------------
An author can lay his book before reviewers and critics only by persuading some editor that it is marketable; a scholar can make only such contributions to knowledge as can be passed through the publishing process to enter the body of scientific truth. What, then, of the literary creations that do not promise to command a wide audience, or the specialized contributions to knowledge that can be utilized by only a few experts? Both these classes of intellectual products suffer one of two fates. Either they remain uncommunicated, and are as if they had never been, or they are carried to their “public” by means of a subsidy.
--------------------
(1948: 186)
----------------------------------------
21
--------------------
... the mimeograph, which squeezes ink through a wax stencil that has been prepared on a typewriter, and the hectograph, which lays typescript letters formed of thick purple dye on a gelatin bed, from which copies can be made as long as the deposit of dye lasts—usually until about a hundred copies are taken off.
--------------------
(1948: 187)
----------------------------------------
22
--------------------
The cost of the mimeograph process can be expected to fall sharply as soon as the patents on the wax stencil run out.
--------------------
(1948: 187)
----------------------------------------
23
--------------------
Lately the hectograph process has been improved by a device which eliminates the need for a gelatin bed.
--------------------
(1948: 187)
----------------------------------------
24
--------------------
The operating cost of the hectographing process is so low that it does not greatly exceed the cost of making carbon copies, except as the paper costs mount with increasing size of edition.
--------------------
(1948: 187-188)
----------------------------------------
25
--------------------
Mimeographing and hectographing, together with photo-offset from typescript copy, are the processes which we have come to call ‘near-print.’
--------------------
(1948: 188)
----------------------------------------
26
--------------------
At present thirty-five per cent of the documents issued by the federal government to the public are in near-print form.
--------------------
(1948: 188)
----------------------------------------
27
--------------------
... fetishism in the attitude of the professional scholar towards the printed page. Since contributions to knowledge become effective as contributions only when they are communicated, the amount of research labor is measured by employers at the communicating point. A research scholar must “publish” or be regarded by his university as a drone. Just as tradition protected the use of parchment long after paper had become accessible, so it has protected the status of the printed book or article as the only vehicle for scholarly communication even when processes other than printing would be more appropriate.
--------------------
(1948: 188-189)
----------------------------------------
28
--------------------
The production of beautiful books, as physical objects, may be turned over more and more to calligraphers, the manuscripts to be multiplied by off-set. The duty of making reading matter accessible to the scholar may be assumed increasingly by the micro-copying process, and near-print may become the normal channel by which the creative worker, whether in literature or in scholarship, can be guaranteed communication with a limited group that shares his interests, leaving publication in printed form as the channel of communication with a larger public.
--------------------
(1948: 189)
----------------------------------------
29
--------------------
... micro-copying can bring the resources of the Library of Congress to the small-town high-school teacher, just as the radio brings the symphony orchestra.
--------------------
(1948: 194)
----------------------------------------